<?xml version="1.0" encoding="utf-8"?>
<!-- Generator: Adobe Illustrator 23.0.6, SVG Export Plug-In . SVG Version: 6.00 Build 0)  -->
<svg version="1.1" id="Layer_1" xmlns="http://www.w3.org/2000/svg" xmlns:xlink="http://www.w3.org/1999/xlink" x="0px" y="0px"
	 viewBox="0 0 40 40" style="enable-background:new 0 0 40 40;" xml:space="preserve">
<style type="text/css">
	.st0{fill:url(#SVGID_1_);}
	.st1{fill:#FFFFFF;}
	.st2{fill:url(#SVGID_2_);}
	.st3{fill:#007BB5;}
	.st4{fill:#1DA1F2;}
	.st5{clip-path:url(#SVGID_4_);}
	.st6{fill:url(#SVGID_5_);}
	.st7{fill:#E8E0E0;}
	.st8{clip-path:url(#SVGID_7_);}
	.st9{fill:#F89D45;}
</style>
<g>
	<defs>
		<path id="SVGID_6_" d="M40,31.78c0,4.54-3.68,8.22-8.22,8.22H8.22C3.68,40,0,36.32,0,31.78V8.22C0,3.68,3.68,0,8.22,0h23.57
			C36.32,0,40,3.68,40,8.22V31.78z"/>
	</defs>
	<clipPath id="SVGID_1_">
		<use xlink:href="#SVGID_6_"  style="overflow:visible;"/>
	</clipPath>
	<g style="clip-path:url(#SVGID_1_);">
		<path class="st9" d="M48.95,26.99c0,7.3-2.5,13.21-9.79,13.21H1.62c-7.3,0-10.57-5.92-10.57-13.21V13.01
			c0-7.3,2.96-13.21,10.26-13.21h38.17c7.3,0,9.48,5.91,9.48,13.21V26.99z"/>
		<path class="st1" d="M31.78,17.1l-0.2-0.41l-0.33-0.26c-0.44-0.34-2.65,0.02-3.24-0.52c-0.42-0.39-0.49-1.08-0.61-2.02
			c-0.24-1.83-0.39-1.92-0.67-2.54c-1.04-2.2-3.86-3.86-5.8-4.09h-5.25c-4.13,0-7.51,3.37-7.51,7.49v3.66v5.07
			c0,4.11,3.38,7.47,7.51,7.47h8.63c4.13,0,7.49-3.37,7.51-7.47l0.04-4.97l0.01-1.08L31.78,17.1z M15.76,13.38h4.16
			c0.79,0,1.44,0.64,1.44,1.43c0,0.78-0.64,1.43-1.44,1.43h-4.16c-0.79,0-1.44-0.65-1.44-1.43C14.32,14.02,14.96,13.38,15.76,13.38z
			 M24.22,24.8h-8.46c-0.79,0-1.44-0.65-1.44-1.43c0-0.79,0.64-1.42,1.44-1.42h8.46c0.79,0,1.43,0.64,1.43,1.42
			C25.65,24.14,25.01,24.8,24.22,24.8z"/>
	</g>
</g>
</svg>
