<?xml version="1.0" encoding="utf-8"?>
<!-- Generator: Adobe Illustrator 23.0.6, SVG Export Plug-In . SVG Version: 6.00 Build 0)  -->
<svg version="1.1" id="Layer_1" xmlns="http://www.w3.org/2000/svg" xmlns:xlink="http://www.w3.org/1999/xlink" x="0px" y="0px"
	 viewBox="0 0 40 40" style="enable-background:new 0 0 40 40;" xml:space="preserve">
<style type="text/css">
	.st0{fill:url(#SVGID_1_);}
	.st1{fill:#FFFFFF;}
	.st2{fill:url(#SVGID_2_);}
	.st3{fill:#007BB5;}
	.st4{fill:#1DA1F2;}
	.st5{clip-path:url(#SVGID_4_);}
	.st6{fill:url(#SVGID_5_);}
	.st7{fill:#E8E0E0;}
	.st8{clip-path:url(#SVGID_7_);}
	.st9{fill:#F89D45;}
</style>
<g>
	<radialGradient id="SVGID_1_" cx="11.7174" cy="43.0976" r="53.0046" gradientUnits="userSpaceOnUse">
		<stop  offset="0.0969" style="stop-color:#FFD879"/>
		<stop  offset="0.1539" style="stop-color:#FCCB76"/>
		<stop  offset="0.2583" style="stop-color:#F5AA6C"/>
		<stop  offset="0.3976" style="stop-color:#E9755E"/>
		<stop  offset="0.449" style="stop-color:#E45F58"/>
		<stop  offset="0.6786" style="stop-color:#D22A9C"/>
		<stop  offset="1" style="stop-color:#6968DF"/>
	</radialGradient>
	<path class="st0" d="M40,31.78c0,4.54-3.68,8.22-8.22,8.22H8.22C3.68,40,0,36.32,0,31.78V8.22C0,3.68,3.68,0,8.22,0h23.57
		C36.32,0,40,3.68,40,8.22V31.78z"/>
	<g>
		<path class="st1" d="M25.79,4.92H14.21c-5.13,0-9.29,4.16-9.29,9.3v11.58c0,5.13,4.16,9.29,9.29,9.29h11.58
			c5.13,0,9.29-4.16,9.29-9.29V14.21C35.08,9.08,30.92,4.92,25.79,4.92z M32.19,24.68c0,4.15-3.36,7.51-7.51,7.51h-9.36
			c-4.15,0-7.51-3.36-7.51-7.51v-9.36c0-4.15,3.36-7.51,7.51-7.51h9.36c4.15,0,7.51,3.36,7.51,7.51V24.68z"/>
		<path class="st1" d="M20.4,12.11c-4.39,0-7.95,3.56-7.95,7.95c0,4.39,3.56,7.95,7.95,7.95c4.39,0,7.95-3.56,7.95-7.95
			C28.35,15.66,24.79,12.11,20.4,12.11z M20.4,24.83c-2.64,0-4.78-2.14-4.78-4.78c0-2.64,2.14-4.78,4.78-4.78
			c2.64,0,4.78,2.14,4.78,4.78C25.18,22.69,23.04,24.83,20.4,24.83z"/>
		<path class="st1" d="M29.82,11.98c0,1.12-0.91,2.02-2.02,2.02c-1.12,0-2.02-0.9-2.02-2.02c0-1.12,0.9-2.02,2.02-2.02
			C28.91,9.96,29.82,10.87,29.82,11.98z"/>
	</g>
</g>
</svg>
