<?xml version="1.0" encoding="utf-8"?>
<!-- Generator: Adobe Illustrator 23.0.6, SVG Export Plug-In . SVG Version: 6.00 Build 0)  -->
<svg version="1.1" id="Layer_1" xmlns="http://www.w3.org/2000/svg" xmlns:xlink="http://www.w3.org/1999/xlink" x="0px" y="0px"
	 viewBox="0 0 40 40" style="enable-background:new 0 0 40 40;" xml:space="preserve">
<style type="text/css">
	.st0{fill:url(#SVGID_1_);}
	.st1{fill:#FFFFFF;}
	.st2{fill:url(#SVGID_2_);}
	.st3{fill:#007BB5;}
	.st4{fill:#1DA1F2;}
	.st5{clip-path:url(#SVGID_4_);}
	.st6{fill:url(#SVGID_5_);}
	.st7{fill:#E8E0E0;}
	.st8{clip-path:url(#SVGID_7_);}
	.st9{fill:#F89D45;}
</style>
<g>
	<path class="st4" d="M40,31.78c0,4.54-3.68,8.22-8.22,8.22H8.22C3.68,40,0,36.32,0,31.78V8.22C0,3.68,3.68,0,8.22,0h23.56
		C36.32,0,40,3.68,40,8.22V31.78z"/>
	<path class="st1" d="M15.24,31.59c10.51,0,16.26-8.71,16.26-16.26c0-0.25,0-0.49-0.02-0.74c1.12-0.81,2.09-1.82,2.85-2.96
		c-1.02,0.45-2.13,0.76-3.28,0.9c1.18-0.71,2.08-1.83,2.51-3.16c-1.1,0.65-2.33,1.13-3.63,1.39c-1.05-1.11-2.53-1.81-4.17-1.81
		c-3.16,0-5.71,2.56-5.71,5.71c0,0.45,0.05,0.88,0.15,1.31c-4.75-0.24-8.96-2.51-11.78-5.97c-0.49,0.84-0.77,1.82-0.77,2.87
		c0,1.98,1.01,3.73,2.54,4.76c-0.94-0.03-1.82-0.29-2.59-0.72c0,0.03,0,0.05,0,0.07c0,2.77,1.97,5.08,4.58,5.6
		c-0.48,0.13-0.98,0.2-1.5,0.2c-0.37,0-0.73-0.04-1.07-0.11c0.73,2.27,2.84,3.93,5.34,3.97c-1.96,1.53-4.42,2.45-7.1,2.45
		c-0.46,0-0.91-0.03-1.36-0.08C9,30.64,12.01,31.59,15.24,31.59"/>
</g>
</svg>
