<?xml version="1.0" encoding="utf-8"?>
<!-- Generator: Adobe Illustrator 23.0.6, SVG Export Plug-In . SVG Version: 6.00 Build 0)  -->
<svg version="1.1" id="Layer_1" xmlns="http://www.w3.org/2000/svg" xmlns:xlink="http://www.w3.org/1999/xlink" x="0px" y="0px"
	 viewBox="0 0 50 36" style="enable-background:new 0 0 50 36;" xml:space="preserve">
<style type="text/css">
	.st0{fill:#231F20;}
</style>
<path class="st0" d="M25,3c-8.28,0-15,6.72-15,15s6.72,15,15,15c8.28,0,15-6.72,15-15S33.28,3,25,3z M16.08,26.97
	c2.02-1.14,4.02-2.27,6.06-3.43c0-0.68,0.01-1.41-0.01-2.14c-0.01-0.18-0.1-0.36-0.19-0.52c-0.13-0.23-0.32-0.43-0.42-0.67
	c-0.2-0.5-0.27-1.01-0.92-1.28c-0.54-0.22-0.75-1.84-0.51-2.54c0.06-0.17,0.1-0.38,0.06-0.55c-0.47-1.57-0.04-2.99,0.96-4.16
	c0.68-0.81,1.56-1.52,2.48-2.04c1.32-0.76,2.84-0.3,3.79,0.9c0.25,0.31,0.57,0.6,0.92,0.8c1.6,0.95,2.12,2.26,1.66,4.21
	c-0.07,0.31,0.04,0.66,0.03,0.99c-0.02,0.53-0.02,1.06-0.13,1.58c-0.1,0.5-0.28,1-0.94,1.06c-0.06,0.01-0.11,0.21-0.16,0.33
	c-0.25,0.48-0.51,0.96-0.73,1.46c-0.09,0.19-0.12,0.41-0.13,0.62c-0.02,0.68-0.01,1.37-0.01,1.98c2.05,1.16,4.03,2.28,6.03,3.42
	C29.64,31.71,21.05,32.18,16.08,26.97z"/>
</svg>
