<?xml version="1.0" encoding="utf-8"?>
<!-- Generator: Adobe Illustrator 23.0.6, SVG Export Plug-In . SVG Version: 6.00 Build 0)  -->
<svg version="1.1" id="Layer_1" xmlns="http://www.w3.org/2000/svg" xmlns:xlink="http://www.w3.org/1999/xlink" x="0px" y="0px"
	 viewBox="0 0 80 80" style="enable-background:new 0 0 80 80;" xml:space="preserve">
<style type="text/css">
	.st0{clip-path:url(#SVGID_2_);fill:#F49A25;}
	.st1{clip-path:url(#SVGID_2_);}
	.st2{fill:#FFFFFF;}
	.st3{clip-path:url(#SVGID_4_);}
	.st4{fill:#F49A25;}
	.st5{clip-path:url(#SVGID_6_);}
	.st6{clip-path:url(#SVGID_8_);}
	.st7{clip-path:url(#SVGID_10_);fill:#F49A25;}
	.st8{clip-path:url(#SVGID_10_);}
	.st9{clip-path:url(#SVGID_12_);fill:#F49A25;}
	.st10{clip-path:url(#SVGID_12_);}
	.st11{clip-path:url(#SVGID_14_);}
	.st12{clip-path:url(#SVGID_16_);}
	.st13{clip-path:url(#SVGID_18_);fill:#F49A25;}
	.st14{clip-path:url(#SVGID_18_);}
	.st15{clip-path:url(#SVGID_20_);}
	.st16{fill:#414042;}
	.st17{clip-path:url(#SVGID_22_);}
	.st18{clip-path:url(#SVGID_24_);fill:#F49A25;}
	.st19{clip-path:url(#SVGID_24_);}
	.st20{clip-path:url(#SVGID_26_);}
	.st21{fill:#EA9024;}
	.st22{clip-path:url(#SVGID_28_);}
	.st23{fill:#58595B;}
	.st24{clip-path:url(#SVGID_30_);}
	.st25{clip-path:url(#SVGID_32_);fill:#F49A25;}
	.st26{clip-path:url(#SVGID_32_);}
	.st27{fill:#F1F2F2;}
</style>
<g>
	<defs>
		<rect id="SVGID_7_" width="80" height="80"/>
	</defs>
	<clipPath id="SVGID_2_">
		<use xlink:href="#SVGID_7_"  style="overflow:visible;"/>
	</clipPath>
	<g class="st1">
		<path class="st4" d="M19.72,50.95c-0.04-0.16-0.16-0.35-0.11-0.47c1.6-4.29,3.43-8.46,6.81-11.72c1.17,1.41,2.8,1.5,4.65,1.55
			c-0.61,0.74-1.15,1.36-1.64,2.01c-0.77,1.02-1.59,2.04-1.69,3.39c-0.17,2.37,1.81,3.87,4.05,3.08c1.33-0.47,2.34-1.41,3.32-2.36
			c3.62-3.48,3.6-3.46,7.88-0.96c4.56,2.66,8.83,5.73,12.84,9.17c0.81,0.69,1.12,1.42,0.62,2.35c-0.54,1.02-1.4,1.09-2.42,0.67
			c-3.85-1.58-7.4-3.73-11.03-5.72c-0.53-0.29-1.22-1.19-1.75-0.36c-0.62,0.96,0.56,1.17,1.1,1.48c3.46,1.96,6.87,4,10.55,5.54
			c0.96,0.4,0.79,1.12,0.55,1.8c-0.32,0.89-1.45,1.37-2.34,1.03c-3.67-1.41-7.28-2.96-10.62-5.07c-0.33-0.21-0.65-0.42-0.98-0.62
			c-0.39-0.24-0.84-0.39-1.12,0.09c-0.28,0.46,0.01,0.8,0.43,1.04c1.67,0.96,3.31,1.98,5.02,2.86c1.52,0.78,3.1,1.44,4.69,2.06
			c0.74,0.29,1.4,0.47,1.08,1.47c-0.28,0.87-1.3,1.42-2.17,1.09c-3.1-1.19-6.3-2.16-9.06-4.11c-0.63-0.45-1.3-0.92-1.54,0.37
			c-0.07,0.4-0.41,0.24-0.6,0.17c-0.34-0.14-0.03-0.33,0.03-0.49c0.86-2.39,0.17-3.84-2.3-4.76c-0.32-0.12-0.52-0.14-0.43-0.57
			c0.33-1.63-0.25-2.9-1.73-3.62c-1.67-0.81-2.96-0.01-4.15,1.28c-0.67-1.31-1.62-2.2-3.15-2.21c-1.57-0.01-2.48,0.99-3.28,2.16
			C20.71,52,20.22,51.48,19.72,50.95z"/>
		<path class="st4" d="M53.5,38.45c3.36,3.3,5.39,7.37,6.79,11.8c-0.92,1.09-1.98,2-3.22,2.72c-0.49,0.28-0.84,0.35-1.33-0.08
			c-4.39-3.87-9.34-6.92-14.34-9.91c-1.75-1.04-3.16-0.79-4.6,0.22c-0.97,0.68-1.81,1.57-2.69,2.39c-0.72,0.67-1.45,1.34-2.33,1.8
			c-0.77,0.39-1.56,0.56-2.25-0.14c-0.66-0.68-0.67-1.51-0.22-2.25c2.33-3.87,5.09-7.06,10.18-7.07c2.84,0,5.64-0.01,8.43,0.63
			C49.76,38.98,51.65,38.91,53.5,38.45z"/>
		<path class="st4" d="M32.34,54.2c-0.07,0.62-0.3,1.14-0.69,1.63c-1.5,1.86-2.98,3.75-4.49,5.61c-0.84,1.04-2.02,1.23-2.91,0.52
			c-0.84-0.66-0.87-1.79-0.04-2.84c1.53-1.95,3.08-3.89,4.64-5.82c0.56-0.69,1.28-1.2,2.23-0.88C31.89,52.71,32.24,53.39,32.34,54.2
			z"/>
		<path class="st4" d="M35.3,58.59c0.01,0.7-0.21,1.1-0.51,1.48c-1.15,1.44-2.27,2.89-3.43,4.32c-0.75,0.93-1.95,1.11-2.84,0.48
			c-0.86-0.61-0.99-1.65-0.19-2.72c1.2-1.61,2.47-3.17,3.76-4.71c0.53-0.64,1.25-0.86,2.08-0.5C34.98,57.3,35.26,57.97,35.3,58.59z"
			/>
		<path class="st4" d="M26.43,53.67c-0.09,0.27-0.12,0.6-0.29,0.83c-0.75,0.99-1.48,2-2.33,2.9c-0.75,0.79-1.7,0.81-2.53,0.09
			c-0.82-0.72-0.93-1.63-0.28-2.53c0.65-0.9,1.37-1.75,2.09-2.6c0.6-0.7,1.4-0.81,2.22-0.46C26.04,52.21,26.34,52.87,26.43,53.67z"
			/>
		<path class="st4" d="M38.58,62.09c2.24,1.15,4.43,2.16,6.77,2.84c0.32,0.09,0.57,0.18,0.51,0.58c-0.1,0.66-0.47,1.17-1.12,1.23
			c-0.84,0.08-1.7,0.01-2.55-0.06c-0.55-0.05-1.09-0.19-1.63-0.32c-1.11-0.27-2.43-0.32-1.66-2.14
			C39.17,63.58,38.82,62.82,38.58,62.09z"/>
		<path class="st4" d="M34.36,67.5c-0.55-0.01-1.1-0.3-1.47-0.88c-0.4-0.62-0.47-1.31-0.05-1.92c0.5-0.74,1.07-1.44,1.67-2.1
			c0.51-0.56,1.22-0.62,1.9-0.39c0.64,0.21,1.06,0.68,1.18,1.39C37.81,64.91,35.81,67.45,34.36,67.5z"/>
		<path class="st4" d="M53.66,36.51c1.64-0.98,3.28-1.9,4.86-2.91c0.66-0.43,1.05-0.38,1.62,0.18c2.33,2.28,4.11,4.93,5.46,7.87
			c0.68,1.47,1.2,3.02,1.87,4.5c0.3,0.67,0.13,0.99-0.47,1.32c-1.42,0.79-2.83,1.6-4.2,2.49c-0.73,0.47-1.01,0.37-1.3-0.45
			c-1.2-3.4-2.7-6.67-4.91-9.55C55.69,38.77,54.67,37.68,53.66,36.51z"/>
		<path class="st4" d="M26.44,36.8c-3.94,3.66-6.27,8.18-8,13.07c-0.19,0.54-0.45,0.77-1.04,0.41c-1.5-0.92-3.01-1.8-4.53-2.68
			c-0.42-0.25-0.6-0.49-0.41-1.03c1.67-4.63,3.74-9,7.34-12.51c0.59-0.57,1.01-0.68,1.73-0.22C23.1,34.86,24.73,35.78,26.44,36.8z"
			/>
		<path class="st4" d="M39.89,12.5c-5.2,0.04-9.53,4.42-9.53,9.64c0,5.22,4.34,9.58,9.55,9.59c5.32,0.02,9.72-4.3,9.73-9.55
			C49.66,16.85,45.23,12.46,39.89,12.5z M46.27,19.09c-2.6,2.55-5.2,5.09-7.76,7.68c-0.55,0.56-0.84,0.45-1.3-0.04
			c-0.86-0.89-1.73-1.78-2.68-2.58c-0.94-0.79-1.33-1.46,0.28-2.16c0.69,0.74,1.53,1.53,2.24,2.43c0.65,0.82,1.05,0.61,1.68-0.04
			c2.12-2.18,4.3-4.3,6.45-6.45c0.39-0.39,0.66-0.82,1.28-0.16C47.07,18.42,46.69,18.69,46.27,19.09z"/>
	</g>
</g>
</svg>
